{
  "name": "Navn",
  "email": "E-post",
  "reason": "Emne",
  "message": "Melding",
  "send": "Send",
  "toast_success_title": "Posten har blitt sendt!",
  "toast_success_description":  "Takk for å ta kontakt med meg! Du skal kanskje få en svar tilbake snart",
  "toast_failure_empty_body_description": "Kroppen til forspørselen eller svaret var tomt",
  "toast_failure_field_length_description": "Størrelsen til feltet er ikke innenfor valid rang",
  "toast_failure_email_format_description": "Error i validasjon av e-post format",
  "toast_failure_unknown_description": "Ukjent error"
}
